…
``` r
library(tidyverse)
#> ── Attaching packages ────────────────────────────────────────────────────────────────────────────────────────────── tidyverse 1.3.0 ──
#> ✓ ggplot2 3.2.1     ✓ purrr   0.3.3
#> ✓ tibble  2.1.3     ✓ dplyr   0.8.3
#> ✓ tidyr   1.0.0     ✓ stringr 1.4.0
#> ✓ readr   1.3.1     ✓ forcats 0.4.0
#> ── Conflicts ───────────────────────────────────────────────────────────────────────────────────────────────── tidyverse_conflicts() ──
#> x dplyr::filter() masks stats::filter()
#> x dplyr::lag()    masks stats::lag()
source("functions.R")
# source("cleaning.R")
scotland <- read_rds("scotland.rds")
scotland
#> # A tibble: 198 x 6
#>    time_stamp          t1                  t2                     s1    s2     r
#>    <dttm>              <chr>               <chr>               <int> <int> <dbl>
#>  1 2018-08-04 10:00:00 St. Mirren          Dundee                  2     1   1  
#>  2 2018-08-04 10:00:00 Kilmarnock          St. Johnstone           2     0   1  
#>  3 2018-08-04 10:00:00 Hamilton Academical Hearts                  1     4   0  
#>  4 2018-08-04 10:00:00 Celtic              Livingston              3     1   1  
#>  5 2018-08-05 08:00:00 Aberdeen            Rangers                 1     1   0.5
#>  6 2018-08-05 10:00:00 Hibernian           Motherwell              3     0   1  
#>  7 2018-08-11 07:30:00 Hearts              Celtic                  1     0   1  
#>  8 2018-08-11 10:00:00 Dundee              Aberdeen                0     1   0  
#>  9 2018-08-11 10:00:00 Motherwell          Hamilton Academical     0     1   0  
#> 10 2018-08-11 10:00:00 Livingston          Kilmarnock              0     0   0.5
#> # … with 188 more rows
```
…
